…
Now run glm for each of the cities in your dataset, and extract the
adjusted odds ratio (and CI) for solving homicides comparing male
victims to female victims. Do this within a “tidy” pipeline, making use
of purrr::map, list columns, and unnest as necessary to create a
dataframe with estimated ORs and CIs for each city.

``` r
homicide_df %>% mutate(
    resolution = as.numeric(resolution == "unsolved"))
```

    ## # A tibble: 39,693 × 14
    ##    uid       repor…¹ city_…² victi…³ victi…⁴ victi…⁵ victi…⁶ victi…⁷ city  state
    ##    <chr>       <dbl> <chr>   <chr>   <chr>   <chr>     <dbl> <chr>   <chr> <chr>
    ##  1 Alb-0000…  2.01e7 Albuqu… SATTER… VIVIANA White        15 Female  Albu… NM   
    ##  2 Alb-0000…  2.01e7 Albuqu… MULA    VIVIAN  White        72 Female  Albu… NM   
    ##  3 Alb-0000…  2.01e7 Albuqu… BOOK    GERALD… White        91 Female  Albu… NM   
    ##  4 Alb-0000…  2.01e7 Albuqu… MARTIN… GUSTAVO White        56 Male    Albu… NM   
    ##  5 Alb-0000…  2.01e7 Albuqu… LUJAN   KEVIN   White        NA Male    Albu… NM   
    ##  6 Alb-0000…  2.01e7 Albuqu… GRAY    STEFAN… White        43 Female  Albu… NM   
    ##  7 Alb-0000…  2.01e7 Albuqu… DAVID   LARRY   White        52 Male    Albu… NM   
    ##  8 Alb-0000…  2.01e7 Albuqu… BRITO   ELIZAB… White        22 Female  Albu… NM   
    ##  9 Alb-0000…  2.01e7 Albuqu… KING    TEVION  Black        15 Male    Albu… NM   
    ## 10 Alb-0000…  2.01e7 Albuqu… BOYKIN  CEDRIC  Black        25 Male    Albu… NM   
    ## # … with 39,683 more rows, 4 more variables: lat <dbl>, lon <dbl>,
    ## #   disposition <chr>, resolution <dbl>, and abbreviated variable names
    ## #   ¹​reported_date, ²​city_state, ³​victim_last, ⁴​victim_first, ⁵​victim_race,
    ## #   ⁶​victim_age, ⁷​victim_sex
…
